digraph "/home/max/Documents/Travail/ISIMA/S2/Structure de Donnees/TP/TP1/git/master/isima-sdd-tp1/Code/src/gestion.c"
{
  edge [fontname="Helvetica",fontsize="10",labelfontname="Helvetica",labelfontsize="10"];
  node [fontname="Helvetica",fontsize="10",shape=record];
  Node0 [label="/home/max/Documents\l/Travail/ISIMA/S2/Structure\l de Donnees/TP/TP1/git/master\l/isima-sdd-tp1/Code/src/gestion.c",height=0.2,width=0.4,color="black", fillcolor="grey75", style="filled", fontcolor="black"];
  Node0 -> Node1 [color="midnightblue",fontsize="10",style="solid"];
  Node1 [label="gestion.h",height=0.2,width=0.4,color="black", fillcolor="white", style="filled",URL="$gestion_8h.html"];
  Node1 -> Node2 [color="midnightblue",fontsize="10",style="solid"];
  Node2 [label="error.h",height=0.2,width=0.4,color="black", fillcolor="white", style="filled",URL="$error_8h.html"];
  Node1 -> Node3 [color="midnightblue",fontsize="10",style="solid"];
  Node3 [label="bool.h",height=0.2,width=0.4,color="black", fillcolor="white", style="filled",URL="$bool_8h.html"];
  Node0 -> Node4 [color="midnightblue",fontsize="10",style="solid"];
  Node4 [label="stdio.h",height=0.2,width=0.4,color="grey75", fillcolor="white", style="filled"];
  Node0 -> Node5 [color="midnightblue",fontsize="10",style="solid"];
  Node5 [label="string.h",height=0.2,width=0.4,color="black", fillcolor="white", style="filled",URL="$string_8h.html"];
  Node0 -> Node6 [color="midnightblue",fontsize="10",style="solid"];
  Node6 [label="stdlib.h",height=0.2,width=0.4,color="grey75", fillcolor="white", style="filled"];
  Node0 -> Node7 [color="midnightblue",fontsize="10",style="solid"];
  Node7 [label="matrix.h",height=0.2,width=0.4,color="black", fillcolor="white", style="filled",URL="$matrix_8h.html"];
  Node7 -> Node2 [color="midnightblue",fontsize="10",style="solid"];
  Node7 -> Node3 [color="midnightblue",fontsize="10",style="solid"];
  Node0 -> Node2 [color="midnightblue",fontsize="10",style="solid"];
  Node0 -> Node8 [color="midnightblue",fontsize="10",style="solid"];
  Node8 [label="liste.h",height=0.2,width=0.4,color="black", fillcolor="white", style="filled",URL="$liste_8h.html"];
  Node8 -> Node9 [color="midnightblue",fontsize="10",style="solid"];
  Node9 [label="production.h",height=0.2,width=0.4,color="black", fillcolor="white", style="filled",URL="$production_8h.html"];
  Node9 -> Node4 [color="midnightblue",fontsize="10",style="solid"];
  Node8 -> Node2 [color="midnightblue",fontsize="10",style="solid"];
  Node8 -> Node7 [color="midnightblue",fontsize="10",style="solid"];
  Node0 -> Node10 [color="midnightblue",fontsize="10",style="solid"];
  Node10 [label="menu.h",height=0.2,width=0.4,color="black", fillcolor="white", style="filled",URL="$menu_8h.html"];
  Node10 -> Node10 [color="midnightblue",fontsize="10",style="solid"];
  Node10 -> Node2 [color="midnightblue",fontsize="10",style="solid"];
  Node10 -> Node5 [color="midnightblue",fontsize="10",style="solid"];
  Node0 -> Node11 [color="midnightblue",fontsize="10",style="solid"];
  Node11 [label="color.h",height=0.2,width=0.4,color="black", fillcolor="white", style="filled",URL="$color_8h.html"];
  Node0 -> Node12 [color="midnightblue",fontsize="10",style="solid"];
  Node12 [label="gestionListeProduction.h",height=0.2,width=0.4,color="black", fillcolor="white", style="filled",URL="$gestionListeProduction_8h.html"];
  Node12 -> Node2 [color="midnightblue",fontsize="10",style="solid"];
  Node0 -> Node13 [color="midnightblue",fontsize="10",style="solid"];
  Node13 [label="gestionFichier.h",height=0.2,width=0.4,color="black", fillcolor="white", style="filled",URL="$gestionFichier_8h.html"];
  Node13 -> Node2 [color="midnightblue",fontsize="10",style="solid"];
  Node13 -> Node8 [color="midnightblue",fontsize="10",style="solid"];
  Node13 -> Node3 [color="midnightblue",fontsize="10",style="solid"];
}
