digraph "/home/max/Documents/Travail/ISIMA/S2/Structure de Donnees/TP/TP1/git/master/isima-sdd-tp1/Code/src/matrix.c"
{
  edge [fontname="Helvetica",fontsize="10",labelfontname="Helvetica",labelfontsize="10"];
  node [fontname="Helvetica",fontsize="10",shape=record];
  Node0 [label="/home/max/Documents\l/Travail/ISIMA/S2/Structure\l de Donnees/TP/TP1/git/master\l/isima-sdd-tp1/Code/src/matrix.c",height=0.2,width=0.4,color="black", fillcolor="grey75", style="filled", fontcolor="black"];
  Node0 -> Node1 [color="midnightblue",fontsize="10",style="solid"];
  Node1 [label="matrix.h",height=0.2,width=0.4,color="black", fillcolor="white", style="filled",URL="$matrix_8h.html"];
  Node1 -> Node2 [color="midnightblue",fontsize="10",style="solid"];
  Node2 [label="error.h",height=0.2,width=0.4,color="black", fillcolor="white", style="filled",URL="$error_8h.html"];
  Node1 -> Node3 [color="midnightblue",fontsize="10",style="solid"];
  Node3 [label="bool.h",height=0.2,width=0.4,color="black", fillcolor="white", style="filled",URL="$bool_8h.html"];
  Node0 -> Node4 [color="midnightblue",fontsize="10",style="solid"];
  Node4 [label="stdlib.h",height=0.2,width=0.4,color="grey75", fillcolor="white", style="filled"];
  Node0 -> Node5 [color="midnightblue",fontsize="10",style="solid"];
  Node5 [label="stdio.h",height=0.2,width=0.4,color="grey75", fillcolor="white", style="filled"];
  Node0 -> Node6 [color="midnightblue",fontsize="10",style="solid"];
  Node6 [label="time.h",height=0.2,width=0.4,color="grey75", fillcolor="white", style="filled"];
  Node0 -> Node2 [color="midnightblue",fontsize="10",style="solid"];
}
